KoggeStoneAdder8Bit/KoggeStoneAdder8Bit.sim/sim_1/behav/xsim/simulate.log
Time resolution is 1 ps
A=190 B= 40 Cin=0 | Sum=11100110 Cout=0
A=190 B= 40 Cin=1 | Sum=11100111 Cout=0
A=190 B= 41 Cin=0 | Sum=11100111 Cout=0
A=190 B= 41 Cin=1 | Sum=11101100 Cout=0
A=190 B= 42 Cin=0 | Sum=11101000 Cout=0
A=190 B= 42 Cin=1 | Sum=11101001 Cout=0
A=190 B= 43 Cin=0 | Sum=11101001 Cout=0
A=190 B= 43 Cin=1 | Sum=11101010 Cout=0
A=190 B= 44 Cin=0 | Sum=11101010 Cout=0
A=190 B= 44 Cin=1 | Sum=11101011 Cout=0
A=190 B= 45 Cin=0 | Sum=11101011 Cout=0
A=190 B= 45 Cin=1 | Sum=11101000 Cout=0
A=190 B= 46 Cin=0 | Sum=11101100 Cout=0
A=190 B= 46 Cin=1 | Sum=11101101 Cout=0
A=190 B= 47 Cin=0 | Sum=11101101 Cout=0
A=190 B= 47 Cin=1 | Sum=11101110 Cout=0
A=190 B= 48 Cin=0 | Sum=11101110 Cout=0
A=190 B= 48 Cin=1 | Sum=11101111 Cout=0
A=190 B= 49 Cin=0 | Sum=11101111 Cout=0
A=190 B= 49 Cin=1 | Sum=11100100 Cout=0
A=190 B= 50 Cin=0 | Sum=11110000 Cout=0
A=190 B= 50 Cin=1 | Sum=11110001 Cout=0
A=190 B= 51 Cin=0 | Sum=11110001 Cout=0
A=190 B= 51 Cin=1 | Sum=11110010 Cout=0
A=190 B= 52 Cin=0 | Sum=11110010 Cout=0
A=190 B= 52 Cin=1 | Sum=11110011 Cout=0
A=190 B= 53 Cin=0 | Sum=11110011 Cout=0
A=190 B= 53 Cin=1 | Sum=11110000 Cout=0
A=190 B= 54 Cin=0 | Sum=11110100 Cout=0
A=190 B= 54 Cin=1 | Sum=11110101 Cout=0
A=190 B= 55 Cin=0 | Sum=11110101 Cout=0
A=190 B= 55 Cin=1 | Sum=11110110 Cout=0
A=190 B= 56 Cin=0 | Sum=11110110 Cout=0
A=190 B= 56 Cin=1 | Sum=11110111 Cout=0
A=190 B= 57 Cin=0 | Sum=11110111 Cout=0
A=190 B= 57 Cin=1 | Sum=11111100 Cout=0
A=190 B= 58 Cin=0 | Sum=11111000 Cout=0
A=190 B= 58 Cin=1 | Sum=11111001 Cout=0
A=190 B= 59 Cin=0 | Sum=11111001 Cout=0
A=190 B= 59 Cin=1 | Sum=11111010 Cout=0
A=190 B= 60 Cin=0 | Sum=11111010 Cout=0
A=190 B= 60 Cin=1 | Sum=11111011 Cout=0
A=190 B= 61 Cin=0 | Sum=11111011 Cout=0
A=190 B= 61 Cin=1 | Sum=11111000 Cout=0
A=190 B= 62 Cin=0 | Sum=11111100 Cout=0
A=190 B= 62 Cin=1 | Sum=11111101 Cout=0
A=190 B= 63 Cin=0 | Sum=11111101 Cout=0
A=190 B= 63 Cin=1 | Sum=11111110 Cout=0
A=190 B= 64 Cin=0 | Sum=11111110 Cout=0
A=190 B= 64 Cin=1 | Sum=11111111 Cout=0
A=190 B= 65 Cin=0 | Sum=11111111 Cout=0
A=190 B= 65 Cin=1 | Sum=01010100 Cout=0
A=190 B= 66 Cin=0 | Sum=00000000 Cout=1
A=190 B= 66 Cin=1 | Sum=00000001 Cout=1
A=190 B= 67 Cin=0 | Sum=00000001 Cout=1
A=190 B= 67 Cin=1 | Sum=00000010 Cout=1
A=190 B= 68 Cin=0 | Sum=00000010 Cout=1
A=190 B= 68 Cin=1 | Sum=00000011 Cout=1
A=190 B= 69 Cin=0 | Sum=00000011 Cout=1
A=190 B= 69 Cin=1 | Sum=00000000 Cout=1
A=190 B= 70 Cin=0 | Sum=00000100 Cout=1
A=190 B= 70 Cin=1 | Sum=00000101 Cout=1
A=190 B= 71 Cin=0 | Sum=00000101 Cout=1
A=190 B= 71 Cin=1 | Sum=00000110 Cout=1
A=190 B= 72 Cin=0 | Sum=00000110 Cout=1
A=190 B= 72 Cin=1 | Sum=00000111 Cout=1
A=190 B= 73 Cin=0 | Sum=00000111 Cout=1
A=190 B= 73 Cin=1 | Sum=00001100 Cout=1
A=190 B= 74 Cin=0 | Sum=00001000 Cout=1
A=190 B= 74 Cin=1 | Sum=00001001 Cout=1
A=190 B= 75 Cin=0 | Sum=00001001 Cout=1
A=190 B= 75 Cin=1 | Sum=00001010 Cout=1
A=190 B= 76 Cin=0 | Sum=00001010 Cout=1
A=190 B= 76 Cin=1 | Sum=00001011 Cout=1
A=190 B= 77 Cin=0 | Sum=00001011 Cout=1
A=190 B= 77 Cin=1 | Sum=00001000 Cout=1
A=190 B= 78 Cin=0 | Sum=00001100 Cout=1
A=190 B= 78 Cin=1 | Sum=00001101 Cout=1
A=190 B= 79 Cin=0 | Sum=00001101 Cout=1
A=190 B= 79 Cin=1 | Sum=00001110 Cout=1
A=190 B= 80 Cin=0 | Sum=00001110 Cout=1
A=190 B= 80 Cin=1 | Sum=00001111 Cout=1
A=190 B= 81 Cin=0 | Sum=00001111 Cout=1
A=190 B= 81 Cin=1 | Sum=00000100 Cout=1
A=190 B= 82 Cin=0 | Sum=00010000 Cout=1
A=190 B= 82 Cin=1 | Sum=00010001 Cout=1
A=190 B= 83 Cin=0 | Sum=00010001 Cout=1
A=190 B= 83 Cin=1 | Sum=00010010 Cout=1
A=190 B= 84 Cin=0 | Sum=00010010 Cout=1
A=190 B= 84 Cin=1 | Sum=00010011 Cout=1
A=190 B= 85 Cin=0 | Sum=00010011 Cout=1
A=190 B= 85 Cin=1 | Sum=00010000 Cout=1
A=190 B= 86 Cin=0 | Sum=00010100 Cout=1
A=190 B= 86 Cin=1 | Sum=00010101 Cout=1
A=190 B= 87 Cin=0 | Sum=00010101 Cout=1
A=190 B= 87 Cin=1 | Sum=00010110 Cout=1
A=190 B= 88 Cin=0 | Sum=00010110 Cout=1
A=190 B= 88 Cin=1 | Sum=00010111 Cout=1
A=190 B= 89 Cin=0 | Sum=00010111 Cout=1
A=190 B= 89 Cin=1 | Sum=00011100 Cout=1
A=190 B= 90 Cin=0 | Sum=00011000 Cout=1
A=190 B= 90 Cin=1 | Sum=00011001 Cout=1
A=190 B= 91 Cin=0 | Sum=00011001 Cout=1
A=190 B= 91 Cin=1 | Sum=00011010 Cout=1
A=190 B= 92 Cin=0 | Sum=00011010 Cout=1
A=190 B= 92 Cin=1 | Sum=00011011 Cout=1
A=190 B= 93 Cin=0 | Sum=00011011 Cout=1
A=190 B= 93 Cin=1 | Sum=00011000 Cout=1
A=190 B= 94 Cin=0 | Sum=00011100 Cout=1
A=190 B= 94 Cin=1 | Sum=00011101 Cout=1
A=190 B= 95 Cin=0 | Sum=00011101 Cout=1
A=190 B= 95 Cin=1 | Sum=00011110 Cout=1
A=190 B= 96 Cin=0 | Sum=00011110 Cout=1
A=190 B= 96 Cin=1 | Sum=00011111 Cout=1
A=190 B= 97 Cin=0 | Sum=00011111 Cout=1
A=190 B= 97 Cin=1 | Sum=00110100 Cout=1
A=190 B= 98 Cin=0 | Sum=00100000 Cout=1
A=190 B= 98 Cin=1 | Sum=00100001 Cout=1
A=190 B= 99 Cin=0 | Sum=00100001 Cout=1
A=190 B= 99 Cin=1 | Sum=00100010 Cout=1
A=190 B=100 Cin=0 | Sum=00100010 Cout=1
A=190 B=100 Cin=1 | Sum=00100011 Cout=1
A=190 B=101 Cin=0 | Sum=00100011 Cout=1
A=190 B=101 Cin=1 | Sum=00100000 Cout=1
A=190 B=102 Cin=0 | Sum=00100100 Cout=1
A=190 B=102 Cin=1 | Sum=00100101 Cout=1
A=190 B=103 Cin=0 | Sum=00100101 Cout=1
A=190 B=103 Cin=1 | Sum=00100110 Cout=1
A=190 B=104 Cin=0 | Sum=00100110 Cout=1
A=190 B=104 Cin=1 | Sum=00100111 Cout=1
A=190 B=105 Cin=0 | Sum=00100111 Cout=1
A=190 B=105 Cin=1 | Sum=00101100 Cout=1
A=190 B=106 Cin=0 | Sum=00101000 Cout=1
A=190 B=106 Cin=1 | Sum=00101001 Cout=1
A=190 B=107 Cin=0 | Sum=00101001 Cout=1
A=190 B=107 Cin=1 | Sum=00101010 Cout=1
A=190 B=108 Cin=0 | Sum=00101010 Cout=1
A=190 B=108 Cin=1 | Sum=00101011 Cout=1
A=190 B=109 Cin=0 | Sum=00101011 Cout=1
A=190 B=109 Cin=1 | Sum=00101000 Cout=1
A=190 B=110 Cin=0 | Sum=00101100 Cout=1
A=190 B=110 Cin=1 | Sum=00101101 Cout=1
A=190 B=111 Cin=0 | Sum=00101101 Cout=1
A=190 B=111 Cin=1 | Sum=00101110 Cout=1
A=190 B=112 Cin=0 | Sum=00101110 Cout=1
A=190 B=112 Cin=1 | Sum=00101111 Cout=1
A=190 B=113 Cin=0 | Sum=00101111 Cout=1
A=190 B=113 Cin=1 | Sum=00100100 Cout=1
A=190 B=114 Cin=0 | Sum=00110000 Cout=1
A=190 B=114 Cin=1 | Sum=00110001 Cout=1
A=190 B=115 Cin=0 | Sum=00110001 Cout=1
A=190 B=115 Cin=1 | Sum=00110010 Cout=1
A=190 B=116 Cin=0 | Sum=00110010 Cout=1
A=190 B=116 Cin=1 | Sum=00110011 Cout=1
A=190 B=117 Cin=0 | Sum=00110011 Cout=1
A=190 B=117 Cin=1 | Sum=00110000 Cout=1
A=190 B=118 Cin=0 | Sum=00110100 Cout=1
A=190 B=118 Cin=1 | Sum=00110101 Cout=1
A=190 B=119 Cin=0 | Sum=00110101 Cout=1
A=190 B=119 Cin=1 | Sum=00110110 Cout=1
A=190 B=120 Cin=0 | Sum=00110110 Cout=1
A=190 B=120 Cin=1 | Sum=00110111 Cout=1
A=190 B=121 Cin=0 | Sum=00110111 Cout=1
A=190 B=121 Cin=1 | Sum=00111100 Cout=1
A=190 B=122 Cin=0 | Sum=00111000 Cout=1
A=190 B=122 Cin=1 | Sum=00111001 Cout=1
A=190 B=123 Cin=0 | Sum=00111001 Cout=1
A=190 B=123 Cin=1 | Sum=00111010 Cout=1
A=190 B=124 Cin=0 | Sum=00111010 Cout=1
A=190 B=124 Cin=1 | Sum=00111011 Cout=1
A=190 B=125 Cin=0 | Sum=00111011 Cout=1
A=190 B=125 Cin=1 | Sum=00111000 Cout=1
A=190 B=126 Cin=0 | Sum=00111100 Cout=1
A=190 B=126 Cin=1 | Sum=00111101 Cout=1
A=190 B=127 Cin=0 | Sum=00111101 Cout=1
A=190 B=127 Cin=1 | Sum=00111110 Cout=1
A=190 B=128 Cin=0 | Sum=00111110 Cout=1
A=190 B=128 Cin=1 | Sum=00111111 Cout=1
A=190 B=129 Cin=0 | Sum=00111111 Cout=1
A=190 B=129 Cin=1 | Sum=00010100 Cout=1
A=190 B=130 Cin=0 | Sum=01000000 Cout=1
A=190 B=130 Cin=1 | Sum=01000001 Cout=1
A=190 B=131 Cin=0 | Sum=01000001 Cout=1
A=190 B=131 Cin=1 | Sum=01000010 Cout=1
A=190 B=132 Cin=0 | Sum=01000010 Cout=1
A=190 B=132 Cin=1 | Sum=01000011 Cout=1
A=190 B=133 Cin=0 | Sum=01000011 Cout=1
A=190 B=133 Cin=1 | Sum=01000000 Cout=1
A=190 B=134 Cin=0 | Sum=01000100 Cout=1
A=190 B=134 Cin=1 | Sum=01000101 Cout=1
A=190 B=135 Cin=0 | Sum=01000101 Cout=1
A=190 B=135 Cin=1 | Sum=01000110 Cout=1
A=190 B=136 Cin=0 | Sum=01000110 Cout=1
A=190 B=136 Cin=1 | Sum=01000111 Cout=1
A=190 B=137 Cin=0 | Sum=01000111 Cout=1
A=190 B=137 Cin=1 | Sum=01001100 Cout=1
A=190 B=138 Cin=0 | Sum=01001000 Cout=1
A=190 B=138 Cin=1 | Sum=01001001 Cout=1
A=190 B=139 Cin=0 | Sum=01001001 Cout=1
A=190 B=139 Cin=1 | Sum=01001010 Cout=1
A=190 B=140 Cin=0 | Sum=01001010 Cout=1
A=190 B=140 Cin=1 | Sum=01001011 Cout=1
A=190 B=141 Cin=0 | Sum=01001011 Cout=1
A=190 B=141 Cin=1 | Sum=01001000 Cout=1
A=190 B=142 Cin=0 | Sum=01001100 Cout=1
A=190 B=142 Cin=1 | Sum=01001101 Cout=1
A=190 B=143 Cin=0 | Sum=01001101 Cout=1
A=190 B=143 Cin=1 | Sum=01001110 Cout=1
A=190 B=144 Cin=0 | Sum=01001110 Cout=1
A=190 B=144 Cin=1 | Sum=01001111 Cout=1
A=190 B=145 Cin=0 | Sum=01001111 Cout=1
A=190 B=145 Cin=1 | Sum=01000100 Cout=1
A=190 B=146 Cin=0 | Sum=01010000 Cout=1
A=190 B=146 Cin=1 | Sum=01010001 Cout=1
A=190 B=147 Cin=0 | Sum=01010001 Cout=1
A=190 B=147 Cin=1 | Sum=01010010 Cout=1
A=190 B=148 Cin=0 | Sum=01010010 Cout=1
A=190 B=148 Cin=1 | Sum=01010011 Cout=1
A=190 B=149 Cin=0 | Sum=01010011 Cout=1
A=190 B=149 Cin=1 | Sum=01010000 Cout=1
A=190 B=150 Cin=0 | Sum=01010100 Cout=1
A=190 B=150 Cin=1 | Sum=01010101 Cout=1
A=190 B=151 Cin=0 | Sum=01010101 Cout=1
A=190 B=151 Cin=1 | Sum=01010110 Cout=1
A=190 B=152 Cin=0 | Sum=01010110 Cout=1
A=190 B=152 Cin=1 | Sum=01010111 Cout=1
A=190 B=153 Cin=0 | Sum=01010111 Cout=1
A=190 B=153 Cin=1 | Sum=01011100 Cout=1
A=190 B=154 Cin=0 | Sum=01011000 Cout=1
A=190 B=154 Cin=1 | Sum=01011001 Cout=1
A=190 B=155 Cin=0 | Sum=01011001 Cout=1
A=190 B=155 Cin=1 | Sum=01011010 Cout=1
A=190 B=156 Cin=0 | Sum=01011010 Cout=1
A=190 B=156 Cin=1 | Sum=01011011 Cout=1
A=190 B=157 Cin=0 | Sum=01011011 Cout=1
A=190 B=157 Cin=1 | Sum=01011000 Cout=1
A=190 B=158 Cin=0 | Sum=01011100 Cout=1
A=190 B=158 Cin=1 | Sum=01011101 Cout=1
A=190 B=159 Cin=0 | Sum=01011101 Cout=1
A=190 B=159 Cin=1 | Sum=01011110 Cout=1
A=190 B=160 Cin=0 | Sum=01011110 Cout=1
A=190 B=160 Cin=1 | Sum=01011111 Cout=1
A=190 B=161 Cin=0 | Sum=01011111 Cout=1
A=190 B=161 Cin=1 | Sum=01110100 Cout=1
A=190 B=162 Cin=0 | Sum=01100000 Cout=1
A=190 B=162 Cin=1 | Sum=01100001 Cout=1
A=190 B=163 Cin=0 | Sum=01100001 Cout=1
A=190 B=163 Cin=1 | Sum=01100010 Cout=1
A=190 B=164 Cin=0 | Sum=01100010 Cout=1
A=190 B=164 Cin=1 | Sum=01100011 Cout=1
A=190 B=165 Cin=0 | Sum=01100011 Cout=1
A=190 B=165 Cin=1 | Sum=01100000 Cout=1
A=190 B=166 Cin=0 | Sum=01100100 Cout=1
A=190 B=166 Cin=1 | Sum=01100101 Cout=1
A=190 B=167 Cin=0 | Sum=01100101 Cout=1
A=190 B=167 Cin=1 | Sum=01100110 Cout=1
A=190 B=168 Cin=0 | Sum=01100110 Cout=1
A=190 B=168 Cin=1 | Sum=01100111 Cout=1
A=190 B=169 Cin=0 | Sum=01100111 Cout=1
A=190 B=169 Cin=1 | Sum=01101100 Cout=1
A=190 B=170 Cin=0 | Sum=01101000 Cout=1
A=190 B=170 Cin=1 | Sum=01101001 Cout=1
A=190 B=171 Cin=0 | Sum=01101001 Cout=1
A=190 B=171 Cin=1 | Sum=01101010 Cout=1
A=190 B=172 Cin=0 | Sum=01101010 Cout=1
A=190 B=172 Cin=1 | Sum=01101011 Cout=1
A=190 B=173 Cin=0 | Sum=01101011 Cout=1
A=190 B=173 Cin=1 | Sum=01101000 Cout=1
A=190 B=174 Cin=0 | Sum=01101100 Cout=1
A=190 B=174 Cin=1 | Sum=01101101 Cout=1
A=190 B=175 Cin=0 | Sum=01101101 Cout=1
A=190 B=175 Cin=1 | Sum=01101110 Cout=1
A=190 B=176 Cin=0 | Sum=01101110 Cout=1
A=190 B=176 Cin=1 | Sum=01101111 Cout=1
A=190 B=177 Cin=0 | Sum=01101111 Cout=1
A=190 B=177 Cin=1 | Sum=01100100 Cout=1
A=190 B=178 Cin=0 | Sum=01110000 Cout=1
A=190 B=178 Cin=1 | Sum=01110001 Cout=1
A=190 B=179 Cin=0 | Sum=01110001 Cout=1
A=190 B=179 Cin=1 | Sum=01110010 Cout=1
A=190 B=180 Cin=0 | Sum=01110010 Cout=1
A=190 B=180 Cin=1 | Sum=01110011 Cout=1
A=190 B=181 Cin=0 | Sum=01110011 Cout=1
A=190 B=181 Cin=1 | Sum=01110000 Cout=1
A=190 B=182 Cin=0 | Sum=01110100 Cout=1
A=190 B=182 Cin=1 | Sum=01110101 Cout=1
A=190 B=183 Cin=0 | Sum=01110101 Cout=1
A=190 B=183 Cin=1 | Sum=01110110 Cout=1
A=190 B=184 Cin=0 | Sum=01110110 Cout=1
A=190 B=184 Cin=1 | Sum=01110111 Cout=1
A=190 B=185 Cin=0 | Sum=01110111 Cout=1
A=190 B=185 Cin=1 | Sum=01111100 Cout=1
A=190 B=186 Cin=0 | Sum=01111000 Cout=1
A=190 B=186 Cin=1 | Sum=01111001 Cout=1
A=190 B=187 Cin=0 | Sum=01111001 Cout=1
A=190 B=187 Cin=1 | Sum=01111010 Cout=1
A=190 B=188 Cin=0 | Sum=01111010 Cout=1
A=190 B=188 Cin=1 | Sum=01111011 Cout=1
A=190 B=189 Cin=0 | Sum=01111011 Cout=1
A=190 B=189 Cin=1 | Sum=01111000 Cout=1
A=190 B=190 Cin=0 | Sum=01111100 Cout=1
A=190 B=190 Cin=1 | Sum=01111101 Cout=1
A=190 B=191 Cin=0 | Sum=01111101 Cout=1
A=190 B=191 Cin=1 | Sum=01111110 Cout=1
A=190 B=192 Cin=0 | Sum=01111110 Cout=1
A=190 B=192 Cin=1 | Sum=01111111 Cout=1
A=190 B=193 Cin=0 | Sum=01111111 Cout=1
A=190 B=193 Cin=1 | Sum=11010100 Cout=1
A=190 B=194 Cin=0 | Sum=10000000 Cout=1
A=190 B=194 Cin=1 | Sum=10000001 Cout=1
A=190 B=195 Cin=0 | Sum=10000001 Cout=1
A=190 B=195 Cin=1 | Sum=10000010 Cout=1
A=190 B=196 Cin=0 | Sum=10000010 Cout=1
A=190 B=196 Cin=1 | Sum=10000011 Cout=1
A=190 B=197 Cin=0 | Sum=10000011 Cout=1
A=190 B=197 Cin=1 | Sum=10000000 Cout=1
A=190 B=198 Cin=0 | Sum=10000100 Cout=1
A=190 B=198 Cin=1 | Sum=10000101 Cout=1
A=190 B=199 Cin=0 | Sum=10000101 Cout=1
A=190 B=199 Cin=1 | Sum=10000110 Cout=1
A=190 B=200 Cin=0 | Sum=10000110 Cout=1
A=190 B=200 Cin=1 | Sum=10000111 Cout=1
A=190 B=201 Cin=0 | Sum=10000111 Cout=1
A=190 B=201 Cin=1 | Sum=10001100 Cout=1
A=190 B=202 Cin=0 | Sum=10001000 Cout=1
A=190 B=202 Cin=1 | Sum=10001001 Cout=1
A=190 B=203 Cin=0 | Sum=10001001 Cout=1
A=190 B=203 Cin=1 | Sum=10001010 Cout=1
A=190 B=204 Cin=0 | Sum=10001010 Cout=1
A=190 B=204 Cin=1 | Sum=10001011 Cout=1
A=190 B=205 Cin=0 | Sum=10001011 Cout=1
A=190 B=205 Cin=1 | Sum=10001000 Cout=1
A=190 B=206 Cin=0 | Sum=10001100 Cout=1
A=190 B=206 Cin=1 | Sum=10001101 Cout=1
A=190 B=207 Cin=0 | Sum=10001101 Cout=1
A=190 B=207 Cin=1 | Sum=10001110 Cout=1
A=190 B=208 Cin=0 | Sum=10001110 Cout=1
A=190 B=208 Cin=1 | Sum=10001111 Cout=1
A=190 B=209 Cin=0 | Sum=10001111 Cout=1
A=190 B=209 Cin=1 | Sum=10000100 Cout=1
A=190 B=210 Cin=0 | Sum=10010000 Cout=1
A=190 B=210 Cin=1 | Sum=10010001 Cout=1
A=190 B=211 Cin=0 | Sum=10010001 Cout=1
A=190 B=211 Cin=1 | Sum=10010010 Cout=1
A=190 B=212 Cin=0 | Sum=10010010 Cout=1
A=190 B=212 Cin=1 | Sum=10010011 Cout=1
A=190 B=213 Cin=0 | Sum=10010011 Cout=1
A=190 B=213 Cin=1 | Sum=10010000 Cout=1
A=190 B=214 Cin=0 | Sum=10010100 Cout=1
A=190 B=214 Cin=1 | Sum=10010101 Cout=1
A=190 B=215 Cin=0 | Sum=10010101 Cout=1
A=190 B=215 Cin=1 | Sum=10010110 Cout=1
A=190 B=216 Cin=0 | Sum=10010110 Cout=1
A=190 B=216 Cin=1 | Sum=10010111 Cout=1
A=190 B=217 Cin=0 | Sum=10010111 Cout=1
A=190 B=217 Cin=1 | Sum=10011100 Cout=1
A=190 B=218 Cin=0 | Sum=10011000 Cout=1
A=190 B=218 Cin=1 | Sum=10011001 Cout=1
A=190 B=219 Cin=0 | Sum=10011001 Cout=1
A=190 B=219 Cin=1 | Sum=10011010 Cout=1
A=190 B=220 Cin=0 | Sum=10011010 Cout=1
A=190 B=220 Cin=1 | Sum=10011011 Cout=1
A=190 B=221 Cin=0 | Sum=10011011 Cout=1
A=190 B=221 Cin=1 | Sum=10011000 Cout=1
A=190 B=222 Cin=0 | Sum=10011100 Cout=1
A=190 B=222 Cin=1 | Sum=10011101 Cout=1
A=190 B=223 Cin=0 | Sum=10011101 Cout=1
A=190 B=223 Cin=1 | Sum=10011110 Cout=1
A=190 B=224 Cin=0 | Sum=10011110 Cout=1
A=190 B=224 Cin=1 | Sum=10011111 Cout=1
A=190 B=225 Cin=0 | Sum=10011111 Cout=1
A=190 B=225 Cin=1 | Sum=10110100 Cout=1
A=190 B=226 Cin=0 | Sum=10100000 Cout=1
A=190 B=226 Cin=1 | Sum=10100001 Cout=1
A=190 B=227 Cin=0 | Sum=10100001 Cout=1
A=190 B=227 Cin=1 | Sum=10100010 Cout=1
A=190 B=228 Cin=0 | Sum=10100010 Cout=1
A=190 B=228 Cin=1 | Sum=10100011 Cout=1
A=190 B=229 Cin=0 | Sum=10100011 Cout=1
A=190 B=229 Cin=1 | Sum=10100000 Cout=1
A=190 B=230 Cin=0 | Sum=10100100 Cout=1
A=190 B=230 Cin=1 | Sum=10100101 Cout=1
A=190 B=231 Cin=0 | Sum=10100101 Cout=1
A=190 B=231 Cin=1 | Sum=10100110 Cout=1
A=190 B=232 Cin=0 | Sum=10100110 Cout=1
A=190 B=232 Cin=1 | Sum=10100111 Cout=1
A=190 B=233 Cin=0 | Sum=10100111 Cout=1
A=190 B=233 Cin=1 | Sum=10101100 Cout=1
A=190 B=234 Cin=0 | Sum=10101000 Cout=1
A=190 B=234 Cin=1 | Sum=10101001 Cout=1
A=190 B=235 Cin=0 | Sum=10101001 Cout=1
A=190 B=235 Cin=1 | Sum=10101010 Cout=1
A=190 B=236 Cin=0 | Sum=10101010 Cout=1
A=190 B=236 Cin=1 | Sum=10101011 Cout=1
A=190 B=237 Cin=0 | Sum=10101011 Cout=1
A=190 B=237 Cin=1 | Sum=10101000 Cout=1
A=190 B=238 Cin=0 | Sum=10101100 Cout=1
A=190 B=238 Cin=1 | Sum=10101101 Cout=1
A=190 B=239 Cin=0 | Sum=10101101 Cout=1
A=190 B=239 Cin=1 | Sum=10101110 Cout=1
A=190 B=240 Cin=0 | Sum=10101110 Cout=1
A=190 B=240 Cin=1 | Sum=10101111 Cout=1
A=190 B=241 Cin=0 | Sum=10101111 Cout=1
A=190 B=241 Cin=1 | Sum=10100100 Cout=1
A=190 B=242 Cin=0 | Sum=10110000 Cout=1
A=190 B=242 Cin=1 | Sum=10110001 Cout=1
A=190 B=243 Cin=0 | Sum=10110001 Cout=1
A=190 B=243 Cin=1 | Sum=10110010 Cout=1
A=190 B=244 Cin=0 | Sum=10110010 Cout=1
A=190 B=244 Cin=1 | Sum=10110011 Cout=1
A=190 B=245 Cin=0 | Sum=10110011 Cout=1
A=190 B=245 Cin=1 | Sum=10110000 Cout=1
A=190 B=246 Cin=0 | Sum=10110100 Cout=1
A=190 B=246 Cin=1 | Sum=10110101 Cout=1
A=190 B=247 Cin=0 | Sum=10110101 Cout=1
A=190 B=247 Cin=1 | Sum=10110110 Cout=1
A=190 B=248 Cin=0 | Sum=10110110 Cout=1
A=190 B=248 Cin=1 | Sum=10110111 Cout=1
A=190 B=249 Cin=0 | Sum=10110111 Cout=1
A=190 B=249 Cin=1 | Sum=10111100 Cout=1
A=190 B=250 Cin=0 | Sum=10111000 Cout=1
A=190 B=250 Cin=1 | Sum=10111001 Cout=1
A=190 B=251 Cin=0 | Sum=10111001 Cout=1
A=190 B=251 Cin=1 | Sum=10111010 Cout=1
A=190 B=252 Cin=0 | Sum=10111010 Cout=1
A=190 B=252 Cin=1 | Sum=10111011 Cout=1
A=190 B=253 Cin=0 | Sum=10111011 Cout=1
A=190 B=253 Cin=1 | Sum=10111000 Cout=1
A=190 B=254 Cin=0 | Sum=10111100 Cout=1
A=190 B=254 Cin=1 | Sum=10111101 Cout=1
A=190 B=255 Cin=0 | Sum=10111101 Cout=1
A=190 B=255 Cin=1 | Sum=10111110 Cout=1
A=191 B= 40 Cin=0 | Sum=11100111 Cout=0
A=191 B= 40 Cin=1 | Sum=11101100 Cout=0
A=191 B= 41 Cin=0 | Sum=11101000 Cout=0
A=191 B= 41 Cin=1 | Sum=11101001 Cout=0
A=191 B= 42 Cin=0 | Sum=11101001 Cout=0
A=191 B= 42 Cin=1 | Sum=11101010 Cout=0
A=191 B= 43 Cin=0 | Sum=11101010 Cout=0
A=191 B= 43 Cin=1 | Sum=11101011 Cout=0
A=191 B= 44 Cin=0 | Sum=11101011 Cout=0
A=191 B= 44 Cin=1 | Sum=11101000 Cout=0
A=191 B= 45 Cin=0 | Sum=11101100 Cout=0
A=191 B= 45 Cin=1 | Sum=11101101 Cout=0
A=191 B= 46 Cin=0 | Sum=11101101 Cout=0
A=191 B= 46 Cin=1 | Sum=11101110 Cout=0
A=191 B= 47 Cin=0 | Sum=11101110 Cout=0
A=191 B= 47 Cin=1 | Sum=11101111 Cout=0
A=191 B= 48 Cin=0 | Sum=11101111 Cout=0
A=191 B= 48 Cin=1 | Sum=11100100 Cout=0
A=191 B= 49 Cin=0 | Sum=11110000 Cout=0
A=191 B= 49 Cin=1 | Sum=11110001 Cout=0
A=191 B= 50 Cin=0 | Sum=11110001 Cout=0
A=191 B= 50 Cin=1 | Sum=11110010 Cout=0
A=191 B= 51 Cin=0 | Sum=11110010 Cout=0
A=191 B= 51 Cin=1 | Sum=11110011 Cout=0
A=191 B= 52 Cin=0 | Sum=11110011 Cout=0
A=191 B= 52 Cin=1 | Sum=11110000 Cout=0
A=191 B= 53 Cin=0 | Sum=11110100 Cout=0
A=191 B= 53 Cin=1 | Sum=11110101 Cout=0
A=191 B= 54 Cin=0 | Sum=11110101 Cout=0
A=191 B= 54 Cin=1 | Sum=11110110 Cout=0
A=191 B= 55 Cin=0 | Sum=11110110 Cout=0
A=191 B= 55 Cin=1 | Sum=11110111 Cout=0
A=191 B= 56 Cin=0 | Sum=11110111 Cout=0
A=191 B= 56 Cin=1 | Sum=11111100 Cout=0
A=191 B= 57 Cin=0 | Sum=11111000 Cout=0
A=191 B= 57 Cin=1 | Sum=11111001 Cout=0
A=191 B= 58 Cin=0 | Sum=11111001 Cout=0
A=191 B= 58 Cin=1 | Sum=11111010 Cout=0
A=191 B= 59 Cin=0 | Sum=11111010 Cout=0
A=191 B= 59 Cin=1 | Sum=11111011 Cout=0
A=191 B= 60 Cin=0 | Sum=11111011 Cout=0
A=191 B= 60 Cin=1 | Sum=11111000 Cout=0
A=191 B= 61 Cin=0 | Sum=11111100 Cout=0
A=191 B= 61 Cin=1 | Sum=11111101 Cout=0
A=191 B= 62 Cin=0 | Sum=11111101 Cout=0
A=191 B= 62 Cin=1 | Sum=11111110 Cout=0
A=191 B= 63 Cin=0 | Sum=11111110 Cout=0
A=191 B= 63 Cin=1 | Sum=11111111 Cout=0
A=191 B= 64 Cin=0 | Sum=11111111 Cout=0
A=191 B= 64 Cin=1 | Sum=01010100 Cout=0
A=191 B= 65 Cin=0 | Sum=00000000 Cout=1
A=191 B= 65 Cin=1 | Sum=00000001 Cout=1
A=191 B= 66 Cin=0 | Sum=00000001 Cout=1
A=191 B= 66 Cin=1 | Sum=00000010 Cout=1
A=191 B= 67 Cin=0 | Sum=00000010 Cout=1
A=191 B= 67 Cin=1 | Sum=00000011 Cout=1
A=191 B= 68 Cin=0 | Sum=00000011 Cout=1
A=191 B= 68 Cin=1 | Sum=00000000 Cout=1
A=191 B= 69 Cin=0 | Sum=00000100 Cout=1
A=191 B= 69 Cin=1 | Sum=00000101 Cout=1
A=191 B= 70 Cin=0 | Sum=00000101 Cout=1
A=191 B= 70 Cin=1 | Sum=00000110 Cout=1
A=191 B= 71 Cin=0 | Sum=00000110 Cout=1
A=191 B= 71 Cin=1 | Sum=00000111 Cout=1
A=191 B= 72 Cin=0 | Sum=00000111 Cout=1
A=191 B= 72 Cin=1 | Sum=00001100 Cout=1
A=191 B= 73 Cin=0 | Sum=00001000 Cout=1
A=191 B= 73 Cin=1 | Sum=00001001 Cout=1
A=191 B= 74 Cin=0 | Sum=00001001 Cout=1
A=191 B= 74 Cin=1 | Sum=00001010 Cout=1
A=191 B= 75 Cin=0 | Sum=00001010 Cout=1
A=191 B= 75 Cin=1 | Sum=00001011 Cout=1
A=191 B= 76 Cin=0 | Sum=00001011 Cout=1
A=191 B= 76 Cin=1 | Sum=00001000 Cout=1
A=191 B= 77 Cin=0 | Sum=00001100 Cout=1
A=191 B= 77 Cin=1 | Sum=00001101 Cout=1
