KSA16b/KSA16b.sim/sim_1/behav/xsim/simulate.log
Time resolution is 1 ps
A=65530 B=   10 Cin=0 | Sum=21508 Cout=0
A=65530 B=   10 Cin=1 | Sum=21509 Cout=0
A=65530 B=   11 Cin=0 | Sum=21509 Cout=0
A=65530 B=   11 Cin=1 | Sum=21510 Cout=0
A=65530 B=   12 Cin=0 | Sum=21510 Cout=0
A=65530 B=   12 Cin=1 | Sum=21511 Cout=0
A=65530 B=   13 Cin=0 | Sum=21511 Cout=0
A=65530 B=   13 Cin=1 | Sum=21516 Cout=0
A=65530 B=   14 Cin=0 | Sum=21512 Cout=0
A=65530 B=   14 Cin=1 | Sum=21513 Cout=0
A=65530 B=   15 Cin=0 | Sum=21513 Cout=0
A=65530 B=   15 Cin=1 | Sum=21514 Cout=0
A=65530 B=   16 Cin=0 | Sum=21514 Cout=0
A=65530 B=   16 Cin=1 | Sum=21515 Cout=0
A=65530 B=   17 Cin=0 | Sum=21515 Cout=0
A=65530 B=   17 Cin=1 | Sum=21512 Cout=0
A=65530 B=   18 Cin=0 | Sum=21516 Cout=0
A=65530 B=   18 Cin=1 | Sum=21517 Cout=0
A=65530 B=   19 Cin=0 | Sum=21517 Cout=0
A=65530 B=   19 Cin=1 | Sum=21518 Cout=0
A=65530 B=   20 Cin=0 | Sum=21518 Cout=0
A=65530 B=   20 Cin=1 | Sum=21519 Cout=0
A=65530 B=   21 Cin=0 | Sum=21519 Cout=0
A=65530 B=   21 Cin=1 | Sum=21508 Cout=0
A=65530 B=   22 Cin=0 | Sum=21520 Cout=0
A=65530 B=   22 Cin=1 | Sum=21521 Cout=0
A=65530 B=   23 Cin=0 | Sum=21521 Cout=0
A=65530 B=   23 Cin=1 | Sum=21522 Cout=0
A=65530 B=   24 Cin=0 | Sum=21522 Cout=0
A=65530 B=   24 Cin=1 | Sum=21523 Cout=0
A=65530 B=   25 Cin=0 | Sum=21523 Cout=0
A=65530 B=   25 Cin=1 | Sum=21520 Cout=0
A=65530 B=   26 Cin=0 | Sum=21524 Cout=0
A=65530 B=   26 Cin=1 | Sum=21525 Cout=0
A=65530 B=   27 Cin=0 | Sum=21525 Cout=0
A=65530 B=   27 Cin=1 | Sum=21526 Cout=0
A=65530 B=   28 Cin=0 | Sum=21526 Cout=0
A=65530 B=   28 Cin=1 | Sum=21527 Cout=0
A=65530 B=   29 Cin=0 | Sum=21527 Cout=0
A=65530 B=   29 Cin=1 | Sum=21532 Cout=0
A=65530 B=   30 Cin=0 | Sum=21528 Cout=0
A=65530 B=   30 Cin=1 | Sum=21529 Cout=0
A=65530 B=   31 Cin=0 | Sum=21529 Cout=0
A=65530 B=   31 Cin=1 | Sum=21530 Cout=0
A=65530 B=   32 Cin=0 | Sum=21530 Cout=0
A=65530 B=   32 Cin=1 | Sum=21531 Cout=0
A=65530 B=   33 Cin=0 | Sum=21531 Cout=0
A=65530 B=   33 Cin=1 | Sum=21528 Cout=0
A=65530 B=   34 Cin=0 | Sum=21532 Cout=0
A=65530 B=   34 Cin=1 | Sum=21533 Cout=0
A=65530 B=   35 Cin=0 | Sum=21533 Cout=0
A=65530 B=   35 Cin=1 | Sum=21534 Cout=0
A=65530 B=   36 Cin=0 | Sum=21534 Cout=0
A=65530 B=   36 Cin=1 | Sum=21535 Cout=0
A=65530 B=   37 Cin=0 | Sum=21535 Cout=0
A=65530 B=   37 Cin=1 | Sum=21556 Cout=0
A=65530 B=   38 Cin=0 | Sum=21536 Cout=0
A=65530 B=   38 Cin=1 | Sum=21537 Cout=0
A=65530 B=   39 Cin=0 | Sum=21537 Cout=0
A=65530 B=   39 Cin=1 | Sum=21538 Cout=0
A=65530 B=   40 Cin=0 | Sum=21538 Cout=0
A=65530 B=   40 Cin=1 | Sum=21539 Cout=0
A=65530 B=   41 Cin=0 | Sum=21539 Cout=0
A=65530 B=   41 Cin=1 | Sum=21536 Cout=0
A=65530 B=   42 Cin=0 | Sum=21540 Cout=0
A=65530 B=   42 Cin=1 | Sum=21541 Cout=0
A=65530 B=   43 Cin=0 | Sum=21541 Cout=0
A=65530 B=   43 Cin=1 | Sum=21542 Cout=0
A=65530 B=   44 Cin=0 | Sum=21542 Cout=0
A=65530 B=   44 Cin=1 | Sum=21543 Cout=0
A=65530 B=   45 Cin=0 | Sum=21543 Cout=0
A=65530 B=   45 Cin=1 | Sum=21548 Cout=0
A=65530 B=   46 Cin=0 | Sum=21544 Cout=0
A=65530 B=   46 Cin=1 | Sum=21545 Cout=0
A=65530 B=   47 Cin=0 | Sum=21545 Cout=0
A=65530 B=   47 Cin=1 | Sum=21546 Cout=0
A=65530 B=   48 Cin=0 | Sum=21546 Cout=0
A=65530 B=   48 Cin=1 | Sum=21547 Cout=0
A=65530 B=   49 Cin=0 | Sum=21547 Cout=0
A=65530 B=   49 Cin=1 | Sum=21544 Cout=0
A=65530 B=   50 Cin=0 | Sum=21548 Cout=0
A=65530 B=   50 Cin=1 | Sum=21549 Cout=0
A=65530 B=   51 Cin=0 | Sum=21549 Cout=0
A=65530 B=   51 Cin=1 | Sum=21550 Cout=0
A=65530 B=   52 Cin=0 | Sum=21550 Cout=0
A=65530 B=   52 Cin=1 | Sum=21551 Cout=0
A=65530 B=   53 Cin=0 | Sum=21551 Cout=0
A=65530 B=   53 Cin=1 | Sum=21540 Cout=0
A=65530 B=   54 Cin=0 | Sum=21552 Cout=0
A=65530 B=   54 Cin=1 | Sum=21553 Cout=0
A=65530 B=   55 Cin=0 | Sum=21553 Cout=0
A=65530 B=   55 Cin=1 | Sum=21554 Cout=0
A=65530 B=   56 Cin=0 | Sum=21554 Cout=0
A=65530 B=   56 Cin=1 | Sum=21555 Cout=0
A=65530 B=   57 Cin=0 | Sum=21555 Cout=0
A=65530 B=   57 Cin=1 | Sum=21552 Cout=0
A=65530 B=   58 Cin=0 | Sum=21556 Cout=0
A=65530 B=   58 Cin=1 | Sum=21557 Cout=0
A=65530 B=   59 Cin=0 | Sum=21557 Cout=0
A=65530 B=   59 Cin=1 | Sum=21558 Cout=0
A=65530 B=   60 Cin=0 | Sum=21558 Cout=0
A=65530 B=   60 Cin=1 | Sum=21559 Cout=0
A=65530 B=   61 Cin=0 | Sum=21559 Cout=0
A=65530 B=   61 Cin=1 | Sum=21564 Cout=0
A=65530 B=   62 Cin=0 | Sum=21560 Cout=0
A=65530 B=   62 Cin=1 | Sum=21561 Cout=0
A=65530 B=   63 Cin=0 | Sum=21561 Cout=0
A=65530 B=   63 Cin=1 | Sum=21562 Cout=0
A=65530 B=   64 Cin=0 | Sum=21562 Cout=0
A=65530 B=   64 Cin=1 | Sum=21563 Cout=0
A=65530 B=   65 Cin=0 | Sum=21563 Cout=0
A=65530 B=   65 Cin=1 | Sum=21560 Cout=0
A=65530 B=   66 Cin=0 | Sum=21564 Cout=0
A=65530 B=   66 Cin=1 | Sum=21565 Cout=0
A=65530 B=   67 Cin=0 | Sum=21565 Cout=0
A=65530 B=   67 Cin=1 | Sum=21566 Cout=0
A=65530 B=   68 Cin=0 | Sum=21566 Cout=0
A=65530 B=   68 Cin=1 | Sum=21567 Cout=0
A=65530 B=   69 Cin=0 | Sum=21567 Cout=0
A=65530 B=   69 Cin=1 | Sum=21524 Cout=0
A=65530 B=   70 Cin=0 | Sum=21568 Cout=0
A=65530 B=   70 Cin=1 | Sum=21569 Cout=0
A=65530 B=   71 Cin=0 | Sum=21569 Cout=0
A=65530 B=   71 Cin=1 | Sum=21570 Cout=0
A=65530 B=   72 Cin=0 | Sum=21570 Cout=0
A=65530 B=   72 Cin=1 | Sum=21571 Cout=0
A=65530 B=   73 Cin=0 | Sum=21571 Cout=0
A=65530 B=   73 Cin=1 | Sum=21568 Cout=0
A=65530 B=   74 Cin=0 | Sum=21572 Cout=0
A=65530 B=   74 Cin=1 | Sum=21573 Cout=0
A=65530 B=   75 Cin=0 | Sum=21573 Cout=0
A=65530 B=   75 Cin=1 | Sum=21574 Cout=0
A=65530 B=   76 Cin=0 | Sum=21574 Cout=0
A=65530 B=   76 Cin=1 | Sum=21575 Cout=0
A=65530 B=   77 Cin=0 | Sum=21575 Cout=0
A=65530 B=   77 Cin=1 | Sum=21580 Cout=0
A=65530 B=   78 Cin=0 | Sum=21576 Cout=0
A=65530 B=   78 Cin=1 | Sum=21577 Cout=0
A=65530 B=   79 Cin=0 | Sum=21577 Cout=0
A=65530 B=   79 Cin=1 | Sum=21578 Cout=0
A=65530 B=   80 Cin=0 | Sum=21578 Cout=0
A=65530 B=   80 Cin=1 | Sum=21579 Cout=0
A=65530 B=   81 Cin=0 | Sum=21579 Cout=0
A=65530 B=   81 Cin=1 | Sum=21576 Cout=0
A=65530 B=   82 Cin=0 | Sum=21580 Cout=0
A=65530 B=   82 Cin=1 | Sum=21581 Cout=0
A=65530 B=   83 Cin=0 | Sum=21581 Cout=0
A=65530 B=   83 Cin=1 | Sum=21582 Cout=0
A=65530 B=   84 Cin=0 | Sum=21582 Cout=0
A=65530 B=   84 Cin=1 | Sum=21583 Cout=0
A=65530 B=   85 Cin=0 | Sum=21583 Cout=0
A=65530 B=   85 Cin=1 | Sum=21572 Cout=0
A=65530 B=   86 Cin=0 | Sum=21584 Cout=0
A=65530 B=   86 Cin=1 | Sum=21585 Cout=0
A=65530 B=   87 Cin=0 | Sum=21585 Cout=0
A=65530 B=   87 Cin=1 | Sum=21586 Cout=0
A=65530 B=   88 Cin=0 | Sum=21586 Cout=0
A=65530 B=   88 Cin=1 | Sum=21587 Cout=0
A=65530 B=   89 Cin=0 | Sum=21587 Cout=0
A=65530 B=   89 Cin=1 | Sum=21584 Cout=0
A=65530 B=   90 Cin=0 | Sum=21588 Cout=0
A=65530 B=   90 Cin=1 | Sum=21589 Cout=0
A=65530 B=   91 Cin=0 | Sum=21589 Cout=0
A=65530 B=   91 Cin=1 | Sum=21590 Cout=0
A=65530 B=   92 Cin=0 | Sum=21590 Cout=0
A=65530 B=   92 Cin=1 | Sum=21591 Cout=0
A=65530 B=   93 Cin=0 | Sum=21591 Cout=0
A=65530 B=   93 Cin=1 | Sum=21596 Cout=0
A=65530 B=   94 Cin=0 | Sum=21592 Cout=0
A=65530 B=   94 Cin=1 | Sum=21593 Cout=0
A=65530 B=   95 Cin=0 | Sum=21593 Cout=0
A=65530 B=   95 Cin=1 | Sum=21594 Cout=0
A=65530 B=   96 Cin=0 | Sum=21594 Cout=0
A=65530 B=   96 Cin=1 | Sum=21595 Cout=0
A=65530 B=   97 Cin=0 | Sum=21595 Cout=0
A=65530 B=   97 Cin=1 | Sum=21592 Cout=0
A=65530 B=   98 Cin=0 | Sum=21596 Cout=0
A=65530 B=   98 Cin=1 | Sum=21597 Cout=0
A=65530 B=   99 Cin=0 | Sum=21597 Cout=0
A=65530 B=   99 Cin=1 | Sum=21598 Cout=0
A=65530 B=  100 Cin=0 | Sum=21598 Cout=0
A=65530 B=  100 Cin=1 | Sum=21599 Cout=0
A=65530 B=  101 Cin=0 | Sum=21599 Cout=0
A=65530 B=  101 Cin=1 | Sum=21620 Cout=0
A=65530 B=  102 Cin=0 | Sum=21600 Cout=0
A=65530 B=  102 Cin=1 | Sum=21601 Cout=0
A=65530 B=  103 Cin=0 | Sum=21601 Cout=0
A=65530 B=  103 Cin=1 | Sum=21602 Cout=0
A=65530 B=  104 Cin=0 | Sum=21602 Cout=0
A=65530 B=  104 Cin=1 | Sum=21603 Cout=0
A=65530 B=  105 Cin=0 | Sum=21603 Cout=0
A=65530 B=  105 Cin=1 | Sum=21600 Cout=0
A=65530 B=  106 Cin=0 | Sum=21604 Cout=0
A=65530 B=  106 Cin=1 | Sum=21605 Cout=0
A=65530 B=  107 Cin=0 | Sum=21605 Cout=0
A=65530 B=  107 Cin=1 | Sum=21606 Cout=0
A=65530 B=  108 Cin=0 | Sum=21606 Cout=0
A=65530 B=  108 Cin=1 | Sum=21607 Cout=0
A=65530 B=  109 Cin=0 | Sum=21607 Cout=0
A=65530 B=  109 Cin=1 | Sum=21612 Cout=0
A=65530 B=  110 Cin=0 | Sum=21608 Cout=0
A=65530 B=  110 Cin=1 | Sum=21609 Cout=0
A=65530 B=  111 Cin=0 | Sum=21609 Cout=0
A=65530 B=  111 Cin=1 | Sum=21610 Cout=0
A=65530 B=  112 Cin=0 | Sum=21610 Cout=0
A=65530 B=  112 Cin=1 | Sum=21611 Cout=0
A=65530 B=  113 Cin=0 | Sum=21611 Cout=0
A=65530 B=  113 Cin=1 | Sum=21608 Cout=0
A=65530 B=  114 Cin=0 | Sum=21612 Cout=0
A=65530 B=  114 Cin=1 | Sum=21613 Cout=0
A=65530 B=  115 Cin=0 | Sum=21613 Cout=0
A=65530 B=  115 Cin=1 | Sum=21614 Cout=0
A=65530 B=  116 Cin=0 | Sum=21614 Cout=0
A=65530 B=  116 Cin=1 | Sum=21615 Cout=0
A=65530 B=  117 Cin=0 | Sum=21615 Cout=0
A=65530 B=  117 Cin=1 | Sum=21604 Cout=0
A=65530 B=  118 Cin=0 | Sum=21616 Cout=0
A=65530 B=  118 Cin=1 | Sum=21617 Cout=0
A=65530 B=  119 Cin=0 | Sum=21617 Cout=0
A=65530 B=  119 Cin=1 | Sum=21618 Cout=0
A=65530 B=  120 Cin=0 | Sum=21618 Cout=0
A=65530 B=  120 Cin=1 | Sum=21619 Cout=0
A=65530 B=  121 Cin=0 | Sum=21619 Cout=0
A=65530 B=  121 Cin=1 | Sum=21616 Cout=0
A=65530 B=  122 Cin=0 | Sum=21620 Cout=0
A=65530 B=  122 Cin=1 | Sum=21621 Cout=0
A=65530 B=  123 Cin=0 | Sum=21621 Cout=0
A=65530 B=  123 Cin=1 | Sum=21622 Cout=0
A=65530 B=  124 Cin=0 | Sum=21622 Cout=0
A=65530 B=  124 Cin=1 | Sum=21623 Cout=0
A=65530 B=  125 Cin=0 | Sum=21623 Cout=0
A=65530 B=  125 Cin=1 | Sum=21628 Cout=0
A=65530 B=  126 Cin=0 | Sum=21624 Cout=0
A=65530 B=  126 Cin=1 | Sum=21625 Cout=0
A=65530 B=  127 Cin=0 | Sum=21625 Cout=0
A=65530 B=  127 Cin=1 | Sum=21626 Cout=0
A=65530 B=  128 Cin=0 | Sum=21626 Cout=0
A=65530 B=  128 Cin=1 | Sum=21627 Cout=0
A=65530 B=  129 Cin=0 | Sum=21627 Cout=0
A=65530 B=  129 Cin=1 | Sum=21624 Cout=0
A=65530 B=  130 Cin=0 | Sum=21628 Cout=0
A=65530 B=  130 Cin=1 | Sum=21629 Cout=0
A=65530 B=  131 Cin=0 | Sum=21629 Cout=0
A=65530 B=  131 Cin=1 | Sum=21630 Cout=0
A=65530 B=  132 Cin=0 | Sum=21630 Cout=0
A=65530 B=  132 Cin=1 | Sum=21631 Cout=0
A=65530 B=  133 Cin=0 | Sum=21631 Cout=0
A=65530 B=  133 Cin=1 | Sum=21716 Cout=0
A=65530 B=  134 Cin=0 | Sum=21632 Cout=0
A=65530 B=  134 Cin=1 | Sum=21633 Cout=0
A=65530 B=  135 Cin=0 | Sum=21633 Cout=0
A=65530 B=  135 Cin=1 | Sum=21634 Cout=0
A=65530 B=  136 Cin=0 | Sum=21634 Cout=0
A=65530 B=  136 Cin=1 | Sum=21635 Cout=0
A=65530 B=  137 Cin=0 | Sum=21635 Cout=0
A=65530 B=  137 Cin=1 | Sum=21632 Cout=0
A=65530 B=  138 Cin=0 | Sum=21636 Cout=0
A=65530 B=  138 Cin=1 | Sum=21637 Cout=0
A=65530 B=  139 Cin=0 | Sum=21637 Cout=0
A=65530 B=  139 Cin=1 | Sum=21638 Cout=0
A=65530 B=  140 Cin=0 | Sum=21638 Cout=0
A=65530 B=  140 Cin=1 | Sum=21639 Cout=0
A=65530 B=  141 Cin=0 | Sum=21639 Cout=0
A=65530 B=  141 Cin=1 | Sum=21644 Cout=0
A=65530 B=  142 Cin=0 | Sum=21640 Cout=0
A=65530 B=  142 Cin=1 | Sum=21641 Cout=0
A=65530 B=  143 Cin=0 | Sum=21641 Cout=0
A=65530 B=  143 Cin=1 | Sum=21642 Cout=0
A=65530 B=  144 Cin=0 | Sum=21642 Cout=0
A=65530 B=  144 Cin=1 | Sum=21643 Cout=0
A=65530 B=  145 Cin=0 | Sum=21643 Cout=0
A=65530 B=  145 Cin=1 | Sum=21640 Cout=0
A=65530 B=  146 Cin=0 | Sum=21644 Cout=0
A=65530 B=  146 Cin=1 | Sum=21645 Cout=0
A=65530 B=  147 Cin=0 | Sum=21645 Cout=0
A=65530 B=  147 Cin=1 | Sum=21646 Cout=0
A=65530 B=  148 Cin=0 | Sum=21646 Cout=0
A=65530 B=  148 Cin=1 | Sum=21647 Cout=0
A=65530 B=  149 Cin=0 | Sum=21647 Cout=0
A=65530 B=  149 Cin=1 | Sum=21636 Cout=0
A=65530 B=  150 Cin=0 | Sum=21648 Cout=0
A=65530 B=  150 Cin=1 | Sum=21649 Cout=0
A=65530 B=  151 Cin=0 | Sum=21649 Cout=0
A=65530 B=  151 Cin=1 | Sum=21650 Cout=0
A=65530 B=  152 Cin=0 | Sum=21650 Cout=0
A=65530 B=  152 Cin=1 | Sum=21651 Cout=0
A=65530 B=  153 Cin=0 | Sum=21651 Cout=0
A=65530 B=  153 Cin=1 | Sum=21648 Cout=0
A=65530 B=  154 Cin=0 | Sum=21652 Cout=0
A=65530 B=  154 Cin=1 | Sum=21653 Cout=0
A=65530 B=  155 Cin=0 | Sum=21653 Cout=0
A=65530 B=  155 Cin=1 | Sum=21654 Cout=0
A=65530 B=  156 Cin=0 | Sum=21654 Cout=0
A=65530 B=  156 Cin=1 | Sum=21655 Cout=0
A=65530 B=  157 Cin=0 | Sum=21655 Cout=0
A=65530 B=  157 Cin=1 | Sum=21660 Cout=0
A=65530 B=  158 Cin=0 | Sum=21656 Cout=0
A=65530 B=  158 Cin=1 | Sum=21657 Cout=0
A=65530 B=  159 Cin=0 | Sum=21657 Cout=0
A=65530 B=  159 Cin=1 | Sum=21658 Cout=0
A=65530 B=  160 Cin=0 | Sum=21658 Cout=0
A=65530 B=  160 Cin=1 | Sum=21659 Cout=0
A=65530 B=  161 Cin=0 | Sum=21659 Cout=0
A=65530 B=  161 Cin=1 | Sum=21656 Cout=0
A=65530 B=  162 Cin=0 | Sum=21660 Cout=0
A=65530 B=  162 Cin=1 | Sum=21661 Cout=0
A=65530 B=  163 Cin=0 | Sum=21661 Cout=0
A=65530 B=  163 Cin=1 | Sum=21662 Cout=0
A=65530 B=  164 Cin=0 | Sum=21662 Cout=0
A=65530 B=  164 Cin=1 | Sum=21663 Cout=0
A=65530 B=  165 Cin=0 | Sum=21663 Cout=0
A=65530 B=  165 Cin=1 | Sum=21684 Cout=0
A=65530 B=  166 Cin=0 | Sum=21664 Cout=0
A=65530 B=  166 Cin=1 | Sum=21665 Cout=0
A=65530 B=  167 Cin=0 | Sum=21665 Cout=0
A=65530 B=  167 Cin=1 | Sum=21666 Cout=0
A=65530 B=  168 Cin=0 | Sum=21666 Cout=0
A=65530 B=  168 Cin=1 | Sum=21667 Cout=0
A=65530 B=  169 Cin=0 | Sum=21667 Cout=0
A=65530 B=  169 Cin=1 | Sum=21664 Cout=0
A=65530 B=  170 Cin=0 | Sum=21668 Cout=0
A=65530 B=  170 Cin=1 | Sum=21669 Cout=0
A=65530 B=  171 Cin=0 | Sum=21669 Cout=0
A=65530 B=  171 Cin=1 | Sum=21670 Cout=0
A=65530 B=  172 Cin=0 | Sum=21670 Cout=0
A=65530 B=  172 Cin=1 | Sum=21671 Cout=0
A=65530 B=  173 Cin=0 | Sum=21671 Cout=0
A=65530 B=  173 Cin=1 | Sum=21676 Cout=0
A=65530 B=  174 Cin=0 | Sum=21672 Cout=0
A=65530 B=  174 Cin=1 | Sum=21673 Cout=0
A=65530 B=  175 Cin=0 | Sum=21673 Cout=0
A=65530 B=  175 Cin=1 | Sum=21674 Cout=0
A=65530 B=  176 Cin=0 | Sum=21674 Cout=0
A=65530 B=  176 Cin=1 | Sum=21675 Cout=0
A=65530 B=  177 Cin=0 | Sum=21675 Cout=0
A=65530 B=  177 Cin=1 | Sum=21672 Cout=0
A=65530 B=  178 Cin=0 | Sum=21676 Cout=0
A=65530 B=  178 Cin=1 | Sum=21677 Cout=0
A=65530 B=  179 Cin=0 | Sum=21677 Cout=0
A=65530 B=  179 Cin=1 | Sum=21678 Cout=0
A=65530 B=  180 Cin=0 | Sum=21678 Cout=0
A=65530 B=  180 Cin=1 | Sum=21679 Cout=0
A=65530 B=  181 Cin=0 | Sum=21679 Cout=0
A=65530 B=  181 Cin=1 | Sum=21668 Cout=0
A=65530 B=  182 Cin=0 | Sum=21680 Cout=0
A=65530 B=  182 Cin=1 | Sum=21681 Cout=0
A=65530 B=  183 Cin=0 | Sum=21681 Cout=0
A=65530 B=  183 Cin=1 | Sum=21682 Cout=0
A=65530 B=  184 Cin=0 | Sum=21682 Cout=0
A=65530 B=  184 Cin=1 | Sum=21683 Cout=0
A=65530 B=  185 Cin=0 | Sum=21683 Cout=0
A=65530 B=  185 Cin=1 | Sum=21680 Cout=0
A=65530 B=  186 Cin=0 | Sum=21684 Cout=0
A=65530 B=  186 Cin=1 | Sum=21685 Cout=0
A=65530 B=  187 Cin=0 | Sum=21685 Cout=0
A=65530 B=  187 Cin=1 | Sum=21686 Cout=0
A=65530 B=  188 Cin=0 | Sum=21686 Cout=0
A=65530 B=  188 Cin=1 | Sum=21687 Cout=0
A=65530 B=  189 Cin=0 | Sum=21687 Cout=0
A=65530 B=  189 Cin=1 | Sum=21692 Cout=0
A=65530 B=  190 Cin=0 | Sum=21688 Cout=0
A=65530 B=  190 Cin=1 | Sum=21689 Cout=0
A=65530 B=  191 Cin=0 | Sum=21689 Cout=0
A=65530 B=  191 Cin=1 | Sum=21690 Cout=0
A=65530 B=  192 Cin=0 | Sum=21690 Cout=0
A=65530 B=  192 Cin=1 | Sum=21691 Cout=0
A=65530 B=  193 Cin=0 | Sum=21691 Cout=0
A=65530 B=  193 Cin=1 | Sum=21688 Cout=0
A=65530 B=  194 Cin=0 | Sum=21692 Cout=0
A=65530 B=  194 Cin=1 | Sum=21693 Cout=0
A=65530 B=  195 Cin=0 | Sum=21693 Cout=0
A=65530 B=  195 Cin=1 | Sum=21694 Cout=0
A=65530 B=  196 Cin=0 | Sum=21694 Cout=0
A=65530 B=  196 Cin=1 | Sum=21695 Cout=0
A=65530 B=  197 Cin=0 | Sum=21695 Cout=0
A=65530 B=  197 Cin=1 | Sum=21652 Cout=0
A=65530 B=  198 Cin=0 | Sum=21696 Cout=0
A=65530 B=  198 Cin=1 | Sum=21697 Cout=0
A=65530 B=  199 Cin=0 | Sum=21697 Cout=0
A=65530 B=  199 Cin=1 | Sum=21698 Cout=0
A=65530 B=  200 Cin=0 | Sum=21698 Cout=0
A=65530 B=  200 Cin=1 | Sum=21699 Cout=0
A=65530 B=  201 Cin=0 | Sum=21699 Cout=0
A=65530 B=  201 Cin=1 | Sum=21696 Cout=0
A=65530 B=  202 Cin=0 | Sum=21700 Cout=0
A=65530 B=  202 Cin=1 | Sum=21701 Cout=0
A=65530 B=  203 Cin=0 | Sum=21701 Cout=0
A=65530 B=  203 Cin=1 | Sum=21702 Cout=0
A=65530 B=  204 Cin=0 | Sum=21702 Cout=0
A=65530 B=  204 Cin=1 | Sum=21703 Cout=0
A=65530 B=  205 Cin=0 | Sum=21703 Cout=0
A=65530 B=  205 Cin=1 | Sum=21708 Cout=0
A=65530 B=  206 Cin=0 | Sum=21704 Cout=0
A=65530 B=  206 Cin=1 | Sum=21705 Cout=0
A=65530 B=  207 Cin=0 | Sum=21705 Cout=0
A=65530 B=  207 Cin=1 | Sum=21706 Cout=0
A=65530 B=  208 Cin=0 | Sum=21706 Cout=0
A=65530 B=  208 Cin=1 | Sum=21707 Cout=0
A=65530 B=  209 Cin=0 | Sum=21707 Cout=0
A=65530 B=  209 Cin=1 | Sum=21704 Cout=0
A=65530 B=  210 Cin=0 | Sum=21708 Cout=0
A=65530 B=  210 Cin=1 | Sum=21709 Cout=0
A=65530 B=  211 Cin=0 | Sum=21709 Cout=0
A=65530 B=  211 Cin=1 | Sum=21710 Cout=0
A=65530 B=  212 Cin=0 | Sum=21710 Cout=0
A=65530 B=  212 Cin=1 | Sum=21711 Cout=0
A=65530 B=  213 Cin=0 | Sum=21711 Cout=0
A=65530 B=  213 Cin=1 | Sum=21700 Cout=0
A=65530 B=  214 Cin=0 | Sum=21712 Cout=0
A=65530 B=  214 Cin=1 | Sum=21713 Cout=0
A=65530 B=  215 Cin=0 | Sum=21713 Cout=0
A=65530 B=  215 Cin=1 | Sum=21714 Cout=0
A=65530 B=  216 Cin=0 | Sum=21714 Cout=0
A=65530 B=  216 Cin=1 | Sum=21715 Cout=0
A=65530 B=  217 Cin=0 | Sum=21715 Cout=0
A=65530 B=  217 Cin=1 | Sum=21712 Cout=0
A=65530 B=  218 Cin=0 | Sum=21716 Cout=0
A=65530 B=  218 Cin=1 | Sum=21717 Cout=0
A=65530 B=  219 Cin=0 | Sum=21717 Cout=0
A=65530 B=  219 Cin=1 | Sum=21718 Cout=0
A=65530 B=  220 Cin=0 | Sum=21718 Cout=0
A=65530 B=  220 Cin=1 | Sum=21719 Cout=0
A=65530 B=  221 Cin=0 | Sum=21719 Cout=0
A=65530 B=  221 Cin=1 | Sum=21724 Cout=0
A=65530 B=  222 Cin=0 | Sum=21720 Cout=0
A=65530 B=  222 Cin=1 | Sum=21721 Cout=0
A=65530 B=  223 Cin=0 | Sum=21721 Cout=0
A=65530 B=  223 Cin=1 | Sum=21722 Cout=0
A=65530 B=  224 Cin=0 | Sum=21722 Cout=0
A=65530 B=  224 Cin=1 | Sum=21723 Cout=0
A=65530 B=  225 Cin=0 | Sum=21723 Cout=0
A=65530 B=  225 Cin=1 | Sum=21720 Cout=0
A=65530 B=  226 Cin=0 | Sum=21724 Cout=0
A=65530 B=  226 Cin=1 | Sum=21725 Cout=0
A=65530 B=  227 Cin=0 | Sum=21725 Cout=0
A=65530 B=  227 Cin=1 | Sum=21726 Cout=0
A=65530 B=  228 Cin=0 | Sum=21726 Cout=0
A=65530 B=  228 Cin=1 | Sum=21727 Cout=0
A=65530 B=  229 Cin=0 | Sum=21727 Cout=0
A=65530 B=  229 Cin=1 | Sum=21748 Cout=0
A=65530 B=  230 Cin=0 | Sum=21728 Cout=0
A=65530 B=  230 Cin=1 | Sum=21729 Cout=0
A=65530 B=  231 Cin=0 | Sum=21729 Cout=0
A=65530 B=  231 Cin=1 | Sum=21730 Cout=0
A=65530 B=  232 Cin=0 | Sum=21730 Cout=0
A=65530 B=  232 Cin=1 | Sum=21731 Cout=0
A=65530 B=  233 Cin=0 | Sum=21731 Cout=0
A=65530 B=  233 Cin=1 | Sum=21728 Cout=0
A=65530 B=  234 Cin=0 | Sum=21732 Cout=0
A=65530 B=  234 Cin=1 | Sum=21733 Cout=0
A=65530 B=  235 Cin=0 | Sum=21733 Cout=0
A=65530 B=  235 Cin=1 | Sum=21734 Cout=0
A=65530 B=  236 Cin=0 | Sum=21734 Cout=0
A=65530 B=  236 Cin=1 | Sum=21735 Cout=0
A=65530 B=  237 Cin=0 | Sum=21735 Cout=0
A=65530 B=  237 Cin=1 | Sum=21740 Cout=0
A=65530 B=  238 Cin=0 | Sum=21736 Cout=0
A=65530 B=  238 Cin=1 | Sum=21737 Cout=0
A=65530 B=  239 Cin=0 | Sum=21737 Cout=0
A=65530 B=  239 Cin=1 | Sum=21738 Cout=0
A=65530 B=  240 Cin=0 | Sum=21738 Cout=0
A=65530 B=  240 Cin=1 | Sum=21739 Cout=0
A=65530 B=  241 Cin=0 | Sum=21739 Cout=0
A=65530 B=  241 Cin=1 | Sum=21736 Cout=0
A=65530 B=  242 Cin=0 | Sum=21740 Cout=0
A=65530 B=  242 Cin=1 | Sum=21741 Cout=0
A=65530 B=  243 Cin=0 | Sum=21741 Cout=0
A=65530 B=  243 Cin=1 | Sum=21742 Cout=0
A=65530 B=  244 Cin=0 | Sum=21742 Cout=0
A=65530 B=  244 Cin=1 | Sum=21743 Cout=0
A=65530 B=  245 Cin=0 | Sum=21743 Cout=0
A=65530 B=  245 Cin=1 | Sum=21732 Cout=0
A=65530 B=  246 Cin=0 | Sum=21744 Cout=0
A=65530 B=  246 Cin=1 | Sum=21745 Cout=0
A=65530 B=  247 Cin=0 | Sum=21745 Cout=0
A=65530 B=  247 Cin=1 | Sum=21746 Cout=0
A=65530 B=  248 Cin=0 | Sum=21746 Cout=0
A=65530 B=  248 Cin=1 | Sum=21747 Cout=0
A=65530 B=  249 Cin=0 | Sum=21747 Cout=0
A=65530 B=  249 Cin=1 | Sum=21744 Cout=0
A=65530 B=  250 Cin=0 | Sum=21748 Cout=0
A=65530 B=  250 Cin=1 | Sum=21749 Cout=0
A=65530 B=  251 Cin=0 | Sum=21749 Cout=0
A=65530 B=  251 Cin=1 | Sum=21750 Cout=0
A=65530 B=  252 Cin=0 | Sum=21750 Cout=0
A=65530 B=  252 Cin=1 | Sum=21751 Cout=0
A=65530 B=  253 Cin=0 | Sum=21751 Cout=0
A=65530 B=  253 Cin=1 | Sum=21756 Cout=0
A=65530 B=  254 Cin=0 | Sum=21752 Cout=0
A=65530 B=  254 Cin=1 | Sum=21753 Cout=0
A=65530 B=  255 Cin=0 | Sum=21753 Cout=0
A=65530 B=  255 Cin=1 | Sum=21754 Cout=0
A=65530 B=  256 Cin=0 | Sum=  250 Cout=1
A=65530 B=  256 Cin=1 | Sum=  251 Cout=1
A=65530 B=  257 Cin=0 | Sum=  251 Cout=1
A=65530 B=  257 Cin=1 | Sum=  248 Cout=1
A=65530 B=  258 Cin=0 | Sum=  252 Cout=1
A=65530 B=  258 Cin=1 | Sum=  253 Cout=1
